{ 
	"protocolName": "EnglishAuction", 
	"Auctioneer" : {  "agentName": "1stAgent", 
						 "objectId" : "object2",
                         "initPrice": 10, 
                         "increment" : 3,
						 "reservePrice": 40,
						 "waitingPeriod" :3000
  
                       } , 
     "Bidders" :         [{  "agentName": "2ndAgent",
                         "budget": 50,
                         "personalIncrement": 25
                         } ,
			            {  "agentName": "3rdAgent",
                           "budget": 60,
                           "personalIncrement": 10
                       } 
                       ] 
}